Party_split_strategy
…
                .default = partyname
                
        )) |> 
        left_join(vdem_small, 
                  by = c("countryname" = "country_name", 
                       "partyname" = "v2paenname",
                       "year" = "year")) 

df_parties |> 
        filter(is.na(left_right)) |> 
        arrange(countryname, partyname, year)

# A tibble: 91 × 5
   manifesto_id  year countryname partyname                           left_right
   <chr>        <dbl> <chr>       <chr>                               <chr>     
 1 63810_201008  2010 Australia   Australian Country Party / Nationa… <NA>      
 2 63810_201309  2013 Australia   Australian Country Party / Nationa… <NA>      
 3 63810_201607  2016 Australia   Australian Country Party / Nationa… <NA>      
 4 63810_201905  2019 Australia   Australian Country Party / Nationa… <NA>      
 5 63110_201607  2016 Australia   Australian Greens                   <NA>      
 6 63901_201905  2019 Australia   Centre Alliance                     <NA>      
 7 63622_201309  2013 Australia   Country Liberal Party               <NA>      
 8 63710_201309  2013 Australia   Katter's Australian Party           <NA>      
 9 63710_201607  2016 Australia   Katter's Australian Party           <NA>      
10 63710_201905  2019 Australia   Katter's Australian Party           <NA>      
# ℹ 81 more rows
…
Left-Right split

Of the 91 combinations without a left-right score, there are 55 unique parties.

df_parties |> 
        filter(is.na(left_right)) |> 
        select(-year, -manifesto_id) |> 
        arrange(countryname, partyname) |>
        unique()

# A tibble: 55 × 3
   countryname partyname                                              left_right
   <chr>       <chr>                                                  <chr>     
 1 Australia   Australian Country Party / National Party of Australia <NA>      
 2 Australia   Australian Greens                                      <NA>      
 3 Australia   Centre Alliance                                        <NA>      
 4 Australia   Country Liberal Party                                  <NA>      
 5 Australia   Katter's Australian Party                              <NA>      
 6 Australia   Nick Xenophon Team                                     <NA>      
 7 Canada      Green Party of Canada                                  <NA>      
 8 Ireland     Anti-Austerity Alliance                                <NA>      
 9 Ireland     Green Party                                            <NA>      
10 Ireland     Independent Alliance                                   <NA>      
# ℹ 45 more rows
…
